ID,Prediction
1,0.870000
2,0.550000
3,0.960000
4,0.520000
5,0.660000
6,0.590000
7,0.960000
8,0.970000
9,0.870000
10,0.990000
11,0.980000
12,0.900000
13,0.710000
14,0.990000
15,1.000000
16,0.870000
17,1.000000
18,0.460000
19,0.310000
20,0.340000
21,0.680000
22,1.000000
23,0.880000
24,0.530000
25,0.730000
26,1.000000
27,0.490000
28,1.000000
29,1.000000
30,0.990000
31,0.580000
32,0.980000
33,1.000000
34,1.000000
35,1.000000
36,0.860000
37,0.350000
38,0.420000
39,0.880000
40,0.590000
41,0.960000
42,0.670000
43,0.280000
44,0.990000
45,0.800000
46,0.930000
47,0.990000
48,1.000000
49,1.000000
50,0.880000
51,1.000000
52,0.320000
53,1.000000
54,0.980000
55,1.000000
56,0.300000
57,0.670000
58,0.580000
59,1.000000
60,0.950000
61,0.820000
62,0.450000
63,0.970000
64,0.890000
65,1.000000
66,1.000000
67,1.000000
68,1.000000
69,0.510000
70,0.440000
71,0.250000
72,0.360000
73,1.000000
74,1.000000
75,0.590000
76,0.580000
77,0.980000
78,0.870000
79,0.890000
80,0.980000
81,0.760000
82,0.540000
83,0.370000
84,1.000000
85,0.990000
86,0.360000
87,1.000000
88,0.990000
89,0.990000
90,0.510000
91,1.000000
92,0.750000
93,0.980000
94,1.000000
95,0.780000
96,0.420000
97,0.890000
98,0.480000
99,0.920000
100,0.910000
101,1.000000
102,0.980000
103,1.000000
104,0.410000
105,0.990000
106,1.000000
107,0.340000
108,0.980000
109,1.000000
110,0.890000
111,1.000000
112,1.000000
113,1.000000
114,0.800000
115,0.580000
116,1.000000
117,0.520000
118,0.870000
119,1.000000
120,0.990000
121,0.990000
122,1.000000
123,1.000000
124,0.990000
125,0.810000
126,0.990000
127,0.950000
128,0.920000
129,1.000000
130,0.270000
131,1.000000
132,1.000000
133,1.000000
134,0.990000
135,1.000000
136,0.990000
137,0.520000
138,0.340000
